…
View(Project_mini)
dim(Project_mini)
```

```
## [1] 4786   11
```

``` r
Project_mini
```

```
## # A tibble: 4,786 × 11
##     Year Countries    Economic Freedom Summary …¹  RANK Money_growth Sound_Money
##    <dbl> <chr>                              <dbl> <dbl>        <dbl>       <dbl>
##  1  2022 Albania                             7.48    38         9.48        8.76
##  2  2022 Algeria                             4.46   161         8.68        6.37
##  3  2022 Angola                              4.79   155         7.52        5.00
##  4  2022 Argentina                           4.55   159         0           2.55
##  5  2022 Armenia                             7.49    36         8.54        8.47
##  6  2022 Australia                           7.98     9         8.70        8.80
##  7  2022 Austria                             7.62    23         7.77        8.44
##  8  2022 Azerbaijan                          5.8    128         7.61        6.25
##  9  2022 Bahamas, The                        6.65    81         8.96        6.08
## 10  2022 Bahrain                             7.51    34         9.94        9.03
## # ℹ 4,776 more rows
## # ℹ abbreviated name: ¹​`Economic Freedom Summary Index`
## # ℹ 5 more variables: Sound_Money_Rank <dbl>,
## #   Freedom_to_trade_internationally <dbl>,
## #   Freedom_to_trade_internationally_Rank <dbl>, World_Bank_Region <chr>,
## #   `World Bank Current Income Classification, 1990-Present` <chr>
```

``` r
year2022 <- Project_mini %>% 
  filter(Year== "2022")
year2022
```

```
## # A tibble: 165 × 11
##     Year Countries    Economic Freedom Summary …¹  RANK Money_growth Sound_Money
##    <dbl> <chr>                              <dbl> <dbl>        <dbl>       <dbl>
##  1  2022 Albania                             7.48    38         9.48        8.76
##  2  2022 Algeria                             4.46   161         8.68        6.37
##  3  2022 Angola                              4.79   155         7.52        5.00
##  4  2022 Argentina                           4.55   159         0           2.55
##  5  2022 Armenia                             7.49    36         8.54        8.47
##  6  2022 Australia                           7.98     9         8.70        8.80
##  7  2022 Austria                             7.62    23         7.77        8.44
##  8  2022 Azerbaijan                          5.8    128         7.61        6.25
##  9  2022 Bahamas, The                        6.65    81         8.96        6.08
## 10  2022 Bahrain                             7.51    34         9.94        9.03
## # ℹ 155 more rows
## # ℹ abbreviated name: ¹​`Economic Freedom Summary Index`
## # ℹ 5 more variables: Sound_Money_Rank <dbl>,
## #   Freedom_to_trade_internationally <dbl>,
## #   Freedom_to_trade_internationally_Rank <dbl>, World_Bank_Region <chr>,
## #   `World Bank Current Income Classification, 1990-Present` <chr>
```
Investigate another dataset from year 2021.


``` r
year2021 <- Project_mini %>% filter(Year== "2021")
year2021
```

```
## # A tibble: 165 × 11
##     Year Countries    Economic Freedom Summary …¹  RANK Money_growth Sound_Money
##    <dbl> <chr>                              <dbl> <dbl>        <dbl>       <dbl>
##  1  2021 Albania                             7.58    30         9.61        9.45
##  2  2021 Algeria                             4.77   157         8.92        6.94
##  3  2021 Angola                              5.17   151         7.50        4.70
##  4  2021 Argentina                           4.55   160         1.35        2.96
##  5  2021 Armenia                             7.52    33         8.35        8.65
##  6  2021 Australia                           8        8         8.82        9.33
##  7  2021 Austria                             7.67    26         6.97        8.93
##  8  2021 Azerbaijan                          6.12   111         8.12        7.68
##  9  2021 Bahamas, The                        6.43    94         9.05        6.36
## 10  2021 Bahrain                             7.55    31         9.94        9.36
## # ℹ 155 more rows
## # ℹ abbreviated name: ¹​`Economic Freedom Summary Index`
## # ℹ 5 more variables: Sound_Money_Rank <dbl>,
## #   Freedom_to_trade_internationally <dbl>,
## #   Freedom_to_trade_internationally_Rank <dbl>, World_Bank_Region <chr>,
## #   `World Bank Current Income Classification, 1990-Present` <chr>
```


``` r
year2020 <- Project_mini %>% 
  filter(Year== "2020")
year2020
```

```
## # A tibble: 165 × 11
##     Year Countries    Economic Freedom Summary …¹  RANK Money_growth Sound_Money
##    <dbl> <chr>                              <dbl> <dbl>        <dbl>       <dbl>
##  1  2020 Albania                             7.57    30         9.69        9.68
##  2  2020 Algeria                             4.92   156         9.39        7.85
##  3  2020 Angola                              5.31   149         6.53        4.85
##  4  2020 Argentina                           4.5    160         1.70        3.27
##  5  2020 Armenia                             7.55    31         8.16        9.34
##  6  2020 Australia                           8.07     7         8.82        9.46
##  7  2020 Austria                             7.58    29         5.95        8.80
##  8  2020 Azerbaijan                          6.16   110         8.86        8.41
##  9  2020 Bahamas, The                        6.56    89         8.65        6.56
## 10  2020 Bahrain                             7.44    41         9.94        9.31
## # ℹ 155 more rows
## # ℹ abbreviated name: ¹​`Economic Freedom Summary Index`
## # ℹ 5 more variables: Sound_Money_Rank <dbl>,
## #   Freedom_to_trade_internationally <dbl>,
## #   Freedom_to_trade_internationally_Rank <dbl>, World_Bank_Region <chr>,
## #   `World Bank Current Income Classification, 1990-Present` <chr>
```


``` r
year2019 <- Project_mini %>% 
  filter(Year== "2019")
year2019
```

```
## # A tibble: 165 × 11
##     Year Countries    Economic Freedom Summary …¹  RANK Money_growth Sound_Money
##    <dbl> <chr>                              <dbl> <dbl>        <dbl>       <dbl>
##  1  2019 Albania                             7.69    35         9.84        9.76
##  2  2019 Algeria                             4.74   159         9.85        8.00
##  3  2019 Angola                              5.03   157         7.25        3.71
##  4  2019 Argentina                           5.16   155         3.06        3.37
##  5  2019 Armenia                             7.68    36         8.28        9.34
##  6  2019 Australia                           8.21     8         9.16        9.42
##  7  2019 Austria                             7.88    24         7.96        9.30
##  8  2019 Azerbaijan                          6.37   106         9.15        8.45
##  9  2019 Bahamas, The                        7.02    74         8.98        7.97
## 10  2019 Bahrain                             7.48    48         9.94        9.29
## # ℹ 155 more rows
## # ℹ abbreviated name: ¹​`Economic Freedom Summary Index`
## # ℹ 5 more variables: Sound_Money_Rank <dbl>,
## #   Freedom_to_trade_internationally <dbl>,
## #   Freedom_to_trade_internationally_Rank <dbl>, World_Bank_Region <chr>,
## #   `World Bank Current Income Classification, 1990-Present` <chr>
```
…
